Background – Colby Forecasting 2025
…
Warning in sample_background(obs, mask, n = 2 * nrow(obs), class_label = "background", : There are fewer available cells for raster 'NA' (2459 presences) than the requested 4918 background points. Only 4818 will be returned.

greedy_input

Simple feature collection with 7277 features and 1 field
Geometry type: POINT
Dimension:     XY
Bounding box:  xmin: -74.89169 ymin: 38.805 xmax: -65.02004 ymax: 45.21401
Geodetic CRS:  WGS 84
# A tibble: 7,277 × 2
   class                geometry
 * <fct>             <POINT [°]>
 1 presence    (-72.8074 39.056)
 2 presence      (-71.343 40.52)
 3 presence  (-68.7691 41.52448)
 4 presence       (-67.79 43.32)
 5 presence (-68.44324 42.61177)
 6 presence    (-72.4328 40.213)
 7 presence   (-71.8784 40.3569)
 8 presence      (-65.78 43.195)
 9 presence       (-70.5 42.767)
10 presence   (-72.3024 40.1862)
# ℹ 7,267 more rows
…
