Prediction – Colby Forecasting 2025
…
2.4 A closer look at the model input data

Before we do commit to a selection of variables, let’s turn our attention back to our presence-background points, and look at just those chosen values rather than at values drawn form across the entire domain. Let’s open the file that contains the “greedy” model input for August during the PRESENT climate scenario.

model_input = read_model_input(scientificname = "Mola mola", 
                               approach = "greedy", 
                               mon = "Aug")
model_input

Simple feature collection with 7277 features and 1 field
Geometry type: POINT
Dimension:     XY
Bounding box:  xmin: -74.89169 ymin: 38.805 xmax: -65.02004 ymax: 45.21401
Geodetic CRS:  WGS 84
# A tibble: 7,277 × 2
   class                    geom
   <chr>             <POINT [°]>
 1 presence    (-72.8074 39.056)
 2 presence      (-71.343 40.52)
 3 presence  (-68.7691 41.52448)
 4 presence       (-67.79 43.32)
 5 presence (-68.44324 42.61177)
 6 presence    (-72.4328 40.213)
 7 presence   (-71.8784 40.3569)
 8 presence      (-65.78 43.195)
 9 presence       (-70.5 42.767)
10 presence   (-72.3024 40.1862)
# ℹ 7,267 more rows

Next we’ll extract data values from our August covariates.

variables = extract_brickman(aug, model_input, form = "wide")
variables

# A tibble: 7,277 × 10
   point   MLD  Sbtm   SSS   SST  Tbtm         U         V     Xbtm depth
   <chr> <dbl> <dbl> <dbl> <dbl> <dbl>     <dbl>     <dbl>    <dbl> <dbl>
 1 p0001  5.17  35.0  31.6  23.3  7.50 -0.00161  -0.00340  0.00133  304. 
 2 p0002  4.25  32.8  30.6  21.6  8.15 -0.00420  -0.00206  0.00166   71.6
 3 p0003  4.64  34.0  30.7  20.2  7.05  0.00168   0.00148  0.000793 138. 
 4 p0004  5.58  34.6  30.7  18.8  7.55  0.00267  -0.000410 0.000957 234. 
 5 p0005  5.04  34.7  30.7  19.0  7.43 -0.00619  -0.00121  0.00224  205. 
 6 p0006  4.01  32.4  30.6  22.0  8.22 -0.00344  -0.000859 0.00126   62.6
 7 p0007  4.10  32.9  30.5  21.8  8.34 -0.00565  -0.00226  0.00216   71.3
 8 p0008  3.82  32.4  30.3  18.2  3.56 -0.00702  -0.00431  0.00293   81.6
 9 p0009  3.20  32.4  30.6  17.9  5.73  0.000275 -0.00101  0.000372  70.6
10 p0010  4.02  32.9  30.6  22.0  8.62 -0.000900 -0.00148  0.000614  64.9
# ℹ 7,267 more rows

We are going to call a plotting function, plot_pres_vs_bg(), that wants some of the data from model_input and some of the data in variables. So, we have to do some data wrangling to combine those; we’ll add class to variables and then drop the point column.

variables = variables |>
  mutate(class = model_input$class) |>    # the $ extracts a column 
  select(-point)                          # the - means "deselect" or "drop"
variables

# A tibble: 7,277 × 10
     MLD  Sbtm   SSS   SST  Tbtm         U         V     Xbtm depth class   
   <dbl> <dbl> <dbl> <dbl> <dbl>     <dbl>     <dbl>    <dbl> <dbl> <chr>   
 1  5.17  35.0  31.6  23.3  7.50 -0.00161  -0.00340  0.00133  304.  presence
 2  4.25  32.8  30.6  21.6  8.15 -0.00420  -0.00206  0.00166   71.6 presence
 3  4.64  34.0  30.7  20.2  7.05  0.00168   0.00148  0.000793 138.  presence
 4  5.58  34.6  30.7  18.8  7.55  0.00267  -0.000410 0.000957 234.  presence
 5  5.04  34.7  30.7  19.0  7.43 -0.00619  -0.00121  0.00224  205.  presence
 6  4.01  32.4  30.6  22.0  8.22 -0.00344  -0.000859 0.00126   62.6 presence
 7  4.10  32.9  30.5  21.8  8.34 -0.00565  -0.00226  0.00216   71.3 presence
 8  3.82  32.4  30.3  18.2  3.56 -0.00702  -0.00431  0.00293   81.6 presence
 9  3.20  32.4  30.6  17.9  5.73  0.000275 -0.00101  0.000372  70.6 presence
10  4.02  32.9  30.6  22.0  8.62 -0.000900 -0.00148  0.000614  64.9 presence
# ℹ 7,267 more rows
…
