Modeling – Colby Forecasting 2025
…
Of course we need covariates for August only, for this we can use a function we prepared earlier, prep_model_data().

variables = prep_model_data(model_input, month = "Aug",
                             covars = covars, depth = depth)
  
variables

Simple feature collection with 7272 features and 8 fields
Geometry type: POINT
Dimension:     XY
Bounding box:  xmin: -74.89169 ymin: 38.8678 xmax: -65.02004 ymax: 45.21401
Geodetic CRS:  WGS 84
# A tibble: 7,272 × 9
   class      MLD  Sbtm   SSS   SST  Tbtm         U         V
   <fct>    <dbl> <dbl> <dbl> <dbl> <dbl>     <dbl>     <dbl>
 1 presence  5.17  35.0  31.6  23.3  7.50 -0.00161  -0.00340 
 2 presence  4.25  32.8  30.6  21.6  8.15 -0.00420  -0.00206 
 3 presence  4.64  34.0  30.7  20.2  7.05  0.00168   0.00148 
 4 presence  5.58  34.6  30.7  18.8  7.55  0.00267  -0.000410
 5 presence  5.04  34.7  30.7  19.0  7.43 -0.00619  -0.00121 
 6 presence  4.01  32.4  30.6  22.0  8.22 -0.00344  -0.000859
 7 presence  4.10  32.9  30.5  21.8  8.34 -0.00565  -0.00226 
 8 presence  3.82  32.4  30.3  18.2  3.56 -0.00702  -0.00431 
 9 presence  3.20  32.4  30.6  17.9  5.73  0.000275 -0.00101 
10 presence  4.02  32.9  30.6  22.0  8.62 -0.000900 -0.00148 
# ℹ 7,262 more rows
# ℹ 1 more variable: geom <POINT [°]>
…
