Models – Colby Forecasting 2025
…
Of course we need covariates for August only, for this we can use a function we prepared earlier, prep_model_data(). Note the we specifically ask for a plain table which means we are dropping the spatial information for now.

all_data = prep_model_data(model_input, 
                           month = "Aug",
                           covars = covars, 
                           depth = depth,
                           form = "table") 
all_data

# A tibble: 7,272 × 10
   class      MLD  Sbtm   SSS   SST  Tbtm         U         V     Xbtm depth
 * <fct>    <dbl> <dbl> <dbl> <dbl> <dbl>     <dbl>     <dbl>    <dbl> <dbl>
 1 presence  5.17  35.0  31.6  23.3  7.50 -0.00161  -0.00340  0.00133  304. 
 2 presence  4.25  32.8  30.6  21.6  8.15 -0.00420  -0.00206  0.00166   71.6
 3 presence  4.64  34.0  30.7  20.2  7.05  0.00168   0.00148  0.000793 138. 
 4 presence  5.58  34.6  30.7  18.8  7.55  0.00267  -0.000410 0.000957 234. 
 5 presence  5.04  34.7  30.7  19.0  7.43 -0.00619  -0.00121  0.00224  205. 
 6 presence  4.01  32.4  30.6  22.0  8.22 -0.00344  -0.000859 0.00126   62.6
 7 presence  4.10  32.9  30.5  21.8  8.34 -0.00565  -0.00226  0.00216   71.3
 8 presence  3.82  32.4  30.3  18.2  3.56 -0.00702  -0.00431  0.00293   81.6
 9 presence  3.20  32.4  30.6  17.9  5.73  0.000275 -0.00101  0.000372  70.6
10 presence  4.02  32.9  30.6  22.0  8.62 -0.000900 -0.00148  0.000614  64.9
# ℹ 7,262 more rows
…
Note

We often think of formulas as left-hand side (LHS) and right-hand side (RHS) equalities. And usually, the LHS is the outcome while the RHS is about the inputs. For our modeling, the outcome is to predict the across the entire domain. We can generalize the idea with the “is a function of” operator ~ (the tilde). For the classic formula for a line it like this… y ~ x and a parabola is also y ~ x.

Consider a situation where we have reduced all of the suitable variables to Sbtm, Tbtm, MLD andXbtm, which we have in a table along with a class variable. In our case we have the outcome is an prediction of class it is a function of variables like Sbtm, Tbtm, MLD, Xbtm, etc. This formula would look like y ~ Sbtm + Tbtm + MLD + Xbtm. Unlike the specific equation for a line or parabola, we don’t pretend to know what coefficients, powers and that sort of stuff looks like. We are just saying that class is a function of all of those variables (somehow).

In the case here where the outcome (class) is a function of all other variables in the table, we have a nice short hand. class ~ . where the dot means “every other variable”.

First we fish out of our split data the training data, and then drop the spatial information.

tr_data = training(split_data)
tr_data

# A tibble: 5,453 × 10
   class        MLD  Sbtm   SSS   SST  Tbtm          U           V    Xbtm depth
   <fct>      <dbl> <dbl> <dbl> <dbl> <dbl>      <dbl>       <dbl>   <dbl> <dbl>
 1 background  3.53  29.5  29.0  17.7 15.6  -0.00355    0.000511   1.27e-3 13.5 
 2 background  3.92  31.1  28.9  17.9  7.64 -0.0000966  0.00158    5.63e-4 33.6 
 3 background  4.51  28.6  28.6  19.8 19.9   0.00193    0.00234    1.08e-3  5   
 4 background  4.56  28.4  28.3  20.2 20.3   0.00202   -0.00158    9.08e-4  5   
 5 background  4.95  28.0  28.0  20.8 20.8  -0.000153  -0.00000933 5.44e-5  5.03
 6 background  3.63  30.1  29.3  17.6 13.6  -0.000100   0.00167    5.93e-4 17.8 
 7 background  3.32  31.2  29.3  17.3  6.93  0.0000920  0.000934   3.33e-4 35.2 
 8 background  4.46  32.1  29.3  18.0  5.33 -0.000284   0.00229    8.17e-4 59.4 
 9 background  4.34  32.4  29.2  18.1  5.50 -0.000321   0.00283    1.01e-3 64.9 
10 background  4.01  32.4  29.1  18.1  5.53  0.000172   0.00369    1.31e-3 68.1 
# ℹ 5,443 more rows
…
8 Making predictions

Predicting is easy with this pattern: predictions = predict(model, newdata, ...) We want to specify that we want probabilites of a particular class being predicted. In each case we bind to the prediction our original classification, class.

8.1 Predict with the training data

First we shall predict with the same data we trained with. The results of this will not really tell us much about our model as it is very circular to predict using the very data used to build the model. So this next section is more about a first pass at using the tools at your disposal.

train_pred = predict_model(fitted_wflow, tr_data, type = "prob")
train_pred

# A tibble: 5,453 × 4
   .pred_presence .pred_background .pred      class     
            <dbl>            <dbl> <fct>      <fct>     
 1        0.0174             0.983 background background
 2        0.0542             0.946 background background
 3        0.324              0.676 background background
 4        0.198              0.802 background background
 5        0.113              0.887 background background
 6        0.00953            0.990 background background
 7        0.371              0.629 background background
 8        0.0351             0.965 background background
 9        0.0370             0.963 background background
10        0.0512             0.949 background background
# ℹ 5,443 more rows
…
8.3 Predict with the testing data

Finally, we can repeat these steps with the testing data. This should give use better information than using the training data

8.3.1 Predict

test_data = testing(split_data)
test_pred = predict_model(fitted_wflow, test_data, type = "prob")
test_pred

# A tibble: 1,819 × 4
   .pred_presence .pred_background .pred      class   
            <dbl>            <dbl> <fct>      <fct>   
 1          0.392           0.608  background presence
 2          0.694           0.306  presence   presence
 3          0.550           0.450  presence   presence
 4          0.426           0.574  background presence
 5          0.160           0.840  background presence
 6          0.656           0.344  presence   presence
 7          0.340           0.660  background presence
 8          0.980           0.0198 presence   presence
 9          0.455           0.545  background presence
10          0.961           0.0391 presence   presence
# ℹ 1,809 more rows
…
